<?xml version="1.0" encoding="UTF-8"?><svg xmlns="http://www.w3.org/2000/svg" xmlns:xlink="http://www.w3.org/1999/xlink" fill-opacity="1" color-rendering="auto" color-interpolation="auto" text-rendering="auto" stroke="black" stroke-linecap="square" width="647" stroke-miterlimit="10" shape-rendering="auto" stroke-opacity="1" fill="black" stroke-dasharray="none" font-weight="normal" stroke-width="1" height="608" font-family="'Dialog'" font-style="normal" stroke-linejoin="miter" font-size="12px" stroke-dashoffset="0" image-rendering="auto">
  <!--Generated by ySVG 2.5-->
  <defs id="genericDefs"/>
  <g>
    <defs id="defs1">
      <clipPath clipPathUnits="userSpaceOnUse" id="clipPath1">
        <path d="M0 0 L647 0 L647 608 L0 608 L0 0 Z"/>
      </clipPath>
      <clipPath clipPathUnits="userSpaceOnUse" id="clipPath2">
        <path d="M262 -43 L909 -43 L909 565 L262 565 L262 -43 Z"/>
      </clipPath>
    </defs>
    <g fill="white" text-rendering="geometricPrecision" shape-rendering="geometricPrecision" transform="translate(-262,43)" stroke="white">
      <rect x="262" width="647" height="608" y="-43" clip-path="url(#clipPath2)" stroke="none"/>
    </g>
    <g fill="white" text-rendering="geometricPrecision" shape-rendering="geometricPrecision" transform="matrix(1,0,0,1,-262,43)" stroke="white">
      <rect x="277" width="617" height="387.611" y="-27.611" clip-path="url(#clipPath2)" stroke="none"/>
    </g>
    <g text-rendering="geometricPrecision" stroke-miterlimit="1.45" shape-rendering="geometricPrecision" transform="matrix(1,0,0,1,-262,43)" stroke-linecap="butt">
      <rect fill="none" x="277" width="617" height="387.611" y="-27.611" clip-path="url(#clipPath2)"/>
      <text x="283" xml:space="preserve" y="-9.5465" clip-path="url(#clipPath2)" font-family="sans-serif" stroke="none">μVirt</text>
    </g>
    <g fill="rgb(255,204,0)" text-rendering="geometricPrecision" shape-rendering="geometricPrecision" transform="matrix(1,0,0,1,-262,43)" stroke="rgb(255,204,0)">
      <rect x="277" width="64" height="43" y="317" clip-path="url(#clipPath2)" stroke="none"/>
    </g>
    <g text-rendering="geometricPrecision" stroke-miterlimit="1.45" shape-rendering="geometricPrecision" transform="matrix(1,0,0,1,-262,43)" stroke-linecap="butt">
      <rect fill="none" x="277" width="64" height="43" y="317" clip-path="url(#clipPath2)"/>
      <text x="297.3223" xml:space="preserve" y="343.2139" clip-path="url(#clipPath2)" font-family="sans-serif" stroke="none">eth0</text>
    </g>
    <g fill="rgb(255,204,0)" text-rendering="geometricPrecision" shape-rendering="geometricPrecision" transform="matrix(1,0,0,1,-262,43)" stroke="rgb(255,204,0)">
      <rect x="356" width="64" height="43" y="317" clip-path="url(#clipPath2)" stroke="none"/>
    </g>
    <g text-rendering="geometricPrecision" stroke-miterlimit="1.45" shape-rendering="geometricPrecision" transform="matrix(1,0,0,1,-262,43)" stroke-linecap="butt">
      <rect fill="none" x="356" width="64" height="43" y="317" clip-path="url(#clipPath2)"/>
      <text x="376.3223" xml:space="preserve" y="343.2139" clip-path="url(#clipPath2)" font-family="sans-serif" stroke="none">eth1</text>
    </g>
    <g fill="rgb(255,204,0)" text-rendering="geometricPrecision" shape-rendering="geometricPrecision" transform="matrix(1,0,0,1,-262,43)" stroke="rgb(255,204,0)">
      <rect x="435" width="64" height="43" y="317" clip-path="url(#clipPath2)" stroke="none"/>
    </g>
    <g text-rendering="geometricPrecision" stroke-miterlimit="1.45" shape-rendering="geometricPrecision" transform="matrix(1,0,0,1,-262,43)" stroke-linecap="butt">
      <rect fill="none" x="435" width="64" height="43" y="317" clip-path="url(#clipPath2)"/>
      <text x="455.3223" xml:space="preserve" y="343.2139" clip-path="url(#clipPath2)" font-family="sans-serif" stroke="none">eth2</text>
    </g>
    <g fill="rgb(255,204,0)" text-rendering="geometricPrecision" shape-rendering="geometricPrecision" transform="matrix(1,0,0,1,-262,43)" stroke="rgb(255,204,0)">
      <rect x="514" width="64" height="43" y="317" clip-path="url(#clipPath2)" stroke="none"/>
    </g>
    <g text-rendering="geometricPrecision" stroke-miterlimit="1.45" shape-rendering="geometricPrecision" transform="matrix(1,0,0,1,-262,43)" stroke-linecap="butt">
      <rect fill="none" x="514" width="64" height="43" y="317" clip-path="url(#clipPath2)"/>
      <text x="534.3223" xml:space="preserve" y="343.2139" clip-path="url(#clipPath2)" font-family="sans-serif" stroke="none">eth3</text>
    </g>
    <g fill="rgb(255,204,0)" text-rendering="geometricPrecision" shape-rendering="geometricPrecision" transform="matrix(1,0,0,1,-262,43)" stroke="rgb(255,204,0)">
      <rect x="593" width="64" height="43" y="317" clip-path="url(#clipPath2)" stroke="none"/>
    </g>
    <g text-rendering="geometricPrecision" stroke-miterlimit="1.45" shape-rendering="geometricPrecision" transform="matrix(1,0,0,1,-262,43)" stroke-linecap="butt">
      <rect fill="none" x="593" width="64" height="43" y="317" clip-path="url(#clipPath2)"/>
      <text x="613.3223" xml:space="preserve" y="343.2139" clip-path="url(#clipPath2)" font-family="sans-serif" stroke="none">eth4</text>
    </g>
    <g fill="rgb(255,204,0)" text-rendering="geometricPrecision" shape-rendering="geometricPrecision" transform="matrix(1,0,0,1,-262,43)" stroke="rgb(255,204,0)">
      <rect x="672" width="64" height="43" y="317" clip-path="url(#clipPath2)" stroke="none"/>
    </g>
    <g text-rendering="geometricPrecision" stroke-miterlimit="1.45" shape-rendering="geometricPrecision" transform="matrix(1,0,0,1,-262,43)" stroke-linecap="butt">
      <rect fill="none" x="672" width="64" height="43" y="317" clip-path="url(#clipPath2)"/>
      <text x="692.3223" xml:space="preserve" y="343.2139" clip-path="url(#clipPath2)" font-family="sans-serif" stroke="none">eth5</text>
    </g>
    <g fill="rgb(255,204,0)" text-rendering="geometricPrecision" shape-rendering="geometricPrecision" transform="matrix(1,0,0,1,-262,43)" stroke="rgb(255,204,0)">
      <rect x="751" width="64" height="43" y="317" clip-path="url(#clipPath2)" stroke="none"/>
    </g>
    <g text-rendering="geometricPrecision" stroke-miterlimit="1.45" shape-rendering="geometricPrecision" transform="matrix(1,0,0,1,-262,43)" stroke-linecap="butt">
      <rect fill="none" x="751" width="64" height="43" y="317" clip-path="url(#clipPath2)"/>
      <text x="771.3223" xml:space="preserve" y="343.2139" clip-path="url(#clipPath2)" font-family="sans-serif" stroke="none">eth7</text>
    </g>
    <g fill="rgb(255,204,0)" text-rendering="geometricPrecision" shape-rendering="geometricPrecision" transform="matrix(1,0,0,1,-262,43)" stroke="rgb(255,204,0)">
      <rect x="830" width="64" height="43" y="317" clip-path="url(#clipPath2)" stroke="none"/>
    </g>
    <g text-rendering="geometricPrecision" stroke-miterlimit="1.45" shape-rendering="geometricPrecision" transform="matrix(1,0,0,1,-262,43)" stroke-linecap="butt">
      <rect fill="none" x="830" width="64" height="43" y="317" clip-path="url(#clipPath2)"/>
      <text x="850.3223" xml:space="preserve" y="343.2139" clip-path="url(#clipPath2)" font-family="sans-serif" stroke="none">eth6</text>
    </g>
    <g fill="white" text-rendering="geometricPrecision" shape-rendering="geometricPrecision" transform="matrix(1,0,0,1,-262,43)" stroke="white">
      <rect x="277" width="64" height="43" y="436" clip-path="url(#clipPath2)" stroke="none"/>
    </g>
    <g text-rendering="geometricPrecision" stroke-miterlimit="1.45" shape-rendering="geometricPrecision" transform="matrix(1,0,0,1,-262,43)" stroke-linecap="butt">
      <rect fill="none" x="277" width="64" height="43" y="436" clip-path="url(#clipPath2)"/>
      <text x="294" xml:space="preserve" y="462.2139" clip-path="url(#clipPath2)" font-family="sans-serif" stroke="none">mgmt</text>
    </g>
    <g fill="green" text-rendering="geometricPrecision" shape-rendering="geometricPrecision" transform="matrix(1,0,0,1,-262,43)" stroke="green">
      <rect x="356" width="222" height="43" y="436" clip-path="url(#clipPath2)" stroke="none"/>
    </g>
    <g text-rendering="geometricPrecision" stroke-miterlimit="1.45" shape-rendering="geometricPrecision" transform="matrix(1,0,0,1,-262,43)" stroke-linecap="butt">
      <rect fill="none" x="356" width="222" height="43" y="436" clip-path="url(#clipPath2)"/>
      <text x="452.6592" y="462.2139" clip-path="url(#clipPath2)" fill="white" font-family="sans-serif" stroke="none" xml:space="preserve">office</text>
    </g>
    <g fill="blue" text-rendering="geometricPrecision" shape-rendering="geometricPrecision" transform="matrix(1,0,0,1,-262,43)" stroke="blue">
      <rect x="672" width="64" height="43" y="436" clip-path="url(#clipPath2)" stroke="none"/>
    </g>
    <g text-rendering="geometricPrecision" stroke-miterlimit="1.45" shape-rendering="geometricPrecision" transform="matrix(1,0,0,1,-262,43)" stroke-linecap="butt">
      <rect fill="none" x="672" width="64" height="43" y="436" clip-path="url(#clipPath2)"/>
      <text x="682.001" y="462.2139" clip-path="url(#clipPath2)" fill="white" font-family="sans-serif" stroke="none" xml:space="preserve">WiFI AP</text>
    </g>
    <g fill="blue" text-rendering="geometricPrecision" shape-rendering="geometricPrecision" transform="matrix(1,0,0,1,-262,43)" stroke="blue">
      <rect x="751" width="64" height="43" y="436" clip-path="url(#clipPath2)" stroke="none"/>
    </g>
    <g text-rendering="geometricPrecision" stroke-miterlimit="1.45" shape-rendering="geometricPrecision" transform="matrix(1,0,0,1,-262,43)" stroke-linecap="butt">
      <rect fill="none" x="751" width="64" height="43" y="436" clip-path="url(#clipPath2)"/>
      <text x="761.001" y="462.2139" clip-path="url(#clipPath2)" fill="white" font-family="sans-serif" stroke="none" xml:space="preserve">WiFI AP</text>
    </g>
    <g fill="red" text-rendering="geometricPrecision" shape-rendering="geometricPrecision" transform="matrix(1,0,0,1,-262,43)" stroke="red">
      <rect x="830" width="64" height="43" y="436" clip-path="url(#clipPath2)" stroke="none"/>
    </g>
    <g text-rendering="geometricPrecision" stroke-miterlimit="1.45" shape-rendering="geometricPrecision" transform="matrix(1,0,0,1,-262,43)" stroke-linecap="butt">
      <rect fill="none" x="830" width="64" height="43" y="436" clip-path="url(#clipPath2)"/>
      <text x="848.002" y="462.2139" clip-path="url(#clipPath2)" fill="white" font-family="sans-serif" stroke="none" xml:space="preserve">WAN</text>
    </g>
    <g fill="rgb(255,204,0)" text-rendering="geometricPrecision" shape-rendering="geometricPrecision" transform="matrix(1,0,0,1,-262,43)" stroke="rgb(255,204,0)">
      <rect x="593" width="64" height="43" y="436" clip-path="url(#clipPath2)" stroke="none"/>
    </g>
    <g text-rendering="geometricPrecision" stroke-miterlimit="1.45" shape-rendering="geometricPrecision" transform="matrix(1,0,0,1,-262,43)" stroke-linecap="butt">
      <rect fill="none" x="593" width="64" height="43" y="436" clip-path="url(#clipPath2)"/>
      <text x="613.665" xml:space="preserve" y="462.2139" clip-path="url(#clipPath2)" font-family="sans-serif" stroke="none">dmz</text>
    </g>
    <g fill="rgb(255,204,0)" text-rendering="geometricPrecision" shape-rendering="geometricPrecision" transform="matrix(1,0,0,1,-262,43)" stroke="rgb(255,204,0)">
      <rect x="356" width="538" height="175" y="4.389" clip-path="url(#clipPath2)" stroke="none"/>
    </g>
    <g text-rendering="geometricPrecision" stroke-miterlimit="1.45" shape-rendering="geometricPrecision" transform="matrix(1,0,0,1,-262,43)" stroke-linecap="butt">
      <rect fill="none" x="356" width="538" height="175" y="4.389" clip-path="url(#clipPath2)"/>
      <text x="598.3311" xml:space="preserve" y="96.6029" clip-path="url(#clipPath2)" font-family="sans-serif" stroke="none">IPFire VM</text>
    </g>
    <g fill="lime" text-rendering="geometricPrecision" shape-rendering="geometricPrecision" transform="matrix(1,0,0,1,-262,43)" stroke="lime">
      <rect x="356" width="222" height="30" y="233.1945" clip-path="url(#clipPath2)" stroke="none"/>
    </g>
    <g text-rendering="geometricPrecision" stroke-miterlimit="1.45" shape-rendering="geometricPrecision" transform="matrix(1,0,0,1,-262,43)" stroke-linecap="butt">
      <rect fill="none" x="356" width="222" height="30" y="233.1945" clip-path="url(#clipPath2)"/>
      <text x="445.3262" xml:space="preserve" y="252.9084" clip-path="url(#clipPath2)" font-family="sans-serif" stroke="none">br-office</text>
    </g>
    <g fill="rgb(51,102,255)" text-rendering="geometricPrecision" shape-rendering="geometricPrecision" transform="matrix(1,0,0,1,-262,43)" stroke="rgb(51,102,255)">
      <rect x="672" width="143" height="30" y="233.1945" clip-path="url(#clipPath2)" stroke="none"/>
    </g>
    <g text-rendering="geometricPrecision" stroke-miterlimit="1.45" shape-rendering="geometricPrecision" transform="matrix(1,0,0,1,-262,43)" stroke-linecap="butt">
      <rect fill="none" x="672" width="143" height="30" y="233.1945" clip-path="url(#clipPath2)"/>
      <text x="727.501" xml:space="preserve" y="252.9084" clip-path="url(#clipPath2)" font-family="sans-serif" stroke="none">br-wifi</text>
    </g>
    <g fill="rgb(255,204,0)" text-rendering="geometricPrecision" shape-rendering="geometricPrecision" transform="matrix(1,0,0,1,-262,43)" stroke="rgb(255,204,0)">
      <rect x="593" width="64" height="30" y="233.1945" clip-path="url(#clipPath2)" stroke="none"/>
    </g>
    <g text-rendering="geometricPrecision" stroke-miterlimit="1.45" shape-rendering="geometricPrecision" transform="matrix(1,0,0,1,-262,43)" stroke-linecap="butt">
      <rect fill="none" x="593" width="64" height="30" y="233.1945" clip-path="url(#clipPath2)"/>
      <text x="606.332" xml:space="preserve" y="252.9084" clip-path="url(#clipPath2)" font-family="sans-serif" stroke="none">br-dmz</text>
    </g>
    <g fill="red" text-rendering="geometricPrecision" shape-rendering="geometricPrecision" transform="matrix(1,0,0,1,-262,43)" stroke="red">
      <rect x="830" width="64" height="30" y="233.1945" clip-path="url(#clipPath2)" stroke="none"/>
    </g>
    <g text-rendering="geometricPrecision" stroke-miterlimit="1.45" shape-rendering="geometricPrecision" transform="matrix(1,0,0,1,-262,43)" stroke-linecap="butt">
      <rect fill="none" x="830" width="64" height="30" y="233.1945" clip-path="url(#clipPath2)"/>
      <text x="843.6602" xml:space="preserve" y="252.9084" clip-path="url(#clipPath2)" font-family="sans-serif" stroke="none">br-wan</text>
      <text x="713.4941" xml:space="preserve" y="510.4017" clip-path="url(#clipPath2)" font-family="sans-serif" stroke="none">Two SSIDs</text>
      <text x="698.1514" xml:space="preserve" y="525.1029" clip-path="url(#clipPath2)" font-family="sans-serif" stroke="none">Office (VLAN 10)</text>
      <text x="696.8037" xml:space="preserve" y="539.8041" clip-path="url(#clipPath2)" font-family="sans-serif" stroke="none">Guest (untagged)</text>
      <text x="561.6069" xml:space="preserve" y="500.1029" clip-path="url(#clipPath2)" font-family="sans-serif" stroke="none">Mail/Web servers etc.</text>
      <path fill="none" d="M309 360 L309 436" clip-path="url(#clipPath2)"/>
      <path fill="none" d="M388 360 L388 435.9691" clip-path="url(#clipPath2)"/>
      <path fill="none" d="M467 360 L467 436" clip-path="url(#clipPath2)"/>
      <path fill="none" d="M546 360 L546 435.9701" clip-path="url(#clipPath2)"/>
      <path fill="none" d="M704 360 L704 436" clip-path="url(#clipPath2)"/>
      <path fill="none" d="M783 360 L783 436" clip-path="url(#clipPath2)"/>
      <path fill="none" d="M862 360 L862 436" clip-path="url(#clipPath2)"/>
      <path fill="none" d="M625 360 L625 436" clip-path="url(#clipPath2)"/>
      <path fill="none" d="M467 187.3969 L467 225.1945" clip-path="url(#clipPath2)"/>
      <path d="M467 179.3969 L462 191.3969 L467 188.3969 L472 191.3969 Z" clip-path="url(#clipPath2)" stroke="none"/>
      <path d="M467 233.1945 L472 221.1945 L467 224.1945 L462 221.1945 Z" clip-path="url(#clipPath2)" stroke="none"/>
      <path fill="none" d="M388 263.2219 L388 317" clip-path="url(#clipPath2)"/>
      <path fill="none" d="M467 263.1945 L467 317" clip-path="url(#clipPath2)"/>
      <path fill="none" d="M546 263.2007 L546 317" clip-path="url(#clipPath2)"/>
      <path fill="none" d="M578.0207 262.6928 L775.2418 314.9445" clip-path="url(#clipPath2)"/>
      <path d="M782.975 316.9934 L772.6557 309.0869 L774.2751 314.6884 L770.0947 318.7534 Z" clip-path="url(#clipPath2)" stroke="none"/>
      <text x="706.4869" xml:space="preserve" y="307.3633" clip-path="url(#clipPath2)" font-family="sans-serif" stroke="none">VLAN10</text>
      <path fill="none" d="M578.0237 262.0193 L696.6371 313.7866" clip-path="url(#clipPath2)"/>
      <path d="M703.9692 316.9866 L694.9711 307.604 L695.7206 313.3865 L690.9711 316.7691 Z" clip-path="url(#clipPath2)" stroke="none"/>
      <text x="648.7711" xml:space="preserve" y="307.3633" clip-path="url(#clipPath2)" font-family="sans-serif" stroke="none">VLAN10</text>
      <path fill="none" d="M743.5 187.4125 L743.5 225.1945" clip-path="url(#clipPath2)"/>
      <path d="M743.5 179.4125 L738.5 191.4125 L743.5 188.4125 L748.5 191.4125 Z" clip-path="url(#clipPath2)" stroke="none"/>
      <path d="M743.5 233.1945 L748.5 221.1945 L743.5 224.1945 L738.5 221.1945 Z" clip-path="url(#clipPath2)" stroke="none"/>
      <path fill="none" d="M704 263.2149 L704 317" clip-path="url(#clipPath2)"/>
      <path fill="none" d="M783 263.2061 L783 317.0106" clip-path="url(#clipPath2)"/>
      <path fill="none" d="M625 187.3891 L625 225.1945" clip-path="url(#clipPath2)"/>
      <path d="M625 179.3891 L620 191.3891 L625 188.3891 L630 191.3891 Z" clip-path="url(#clipPath2)" stroke="none"/>
      <path d="M625 233.1945 L630 221.1945 L625 224.1945 L620 221.1945 Z" clip-path="url(#clipPath2)" stroke="none"/>
      <path fill="none" d="M625 263.1945 L625 317" clip-path="url(#clipPath2)"/>
      <path fill="none" d="M862 187.3763 L862 225.1682" clip-path="url(#clipPath2)"/>
      <path d="M862 179.3763 L857 191.3763 L862 188.3763 L867 191.3763 Z" clip-path="url(#clipPath2)" stroke="none"/>
      <path d="M862 233.1682 L867 221.1682 L862 224.1682 L857 221.1682 Z" clip-path="url(#clipPath2)" stroke="none"/>
      <path fill="none" d="M862 271.1945 L862 308.9737" clip-path="url(#clipPath2)"/>
      <path d="M862 263.1945 L857 275.1945 L862 272.1945 L867 275.1945 Z" clip-path="url(#clipPath2)" stroke="none"/>
      <path d="M862 316.9737 L867 304.9737 L862 307.9737 L857 304.9737 Z" clip-path="url(#clipPath2)" stroke="none"/>
    </g>
  </g>
</svg>
